reversible_pipeline/vsim/rtl.vcd
$date
	Thu Dec 11 14:53:06 2025
$end
$version
	Icarus Verilog
$end
$timescale
	1ps
$end
$scope module reversible_pe_tb $end
$var wire 1 ! spi_rx_valid $end
$var wire 18 " spi_rx_data [17:0] $end
$var wire 1 # spi_mosi $end
$var wire 1 $ spi_miso $end
$var wire 1 % spi_csn $end
$var wire 1 & spi_complete $end
$var wire 1 ' spi_clk $end
$var reg 1 ( clk $end
$var reg 1 ) clk_b $end
$var reg 1 * fpga_clk $end
$var reg 16 + rd_val [15:0] $end
$var reg 1 , rst_master $end
$var reg 1 - rst_n $end
$var reg 1 . spi_start $end
$var reg 24 / spi_tx_data [23:0] $end
$scope module dut $end
$var wire 16 0 add_f_b [15:0] $end
$var wire 3 1 buffer_raddr [2:0] $end
$var wire 3 2 buffer_waddr [2:0] $end
$var wire 1 3 buffer_wen $end
$var wire 1 ( clk $end
$var wire 1 ) clk_b $end
$var wire 16 4 nxt_pe_reg0 [15:0] $end
$var wire 3 5 out_buffer_raddr [2:0] $end
$var wire 1 6 out_buffer_ren $end
$var wire 3 7 out_buffer_waddr [2:0] $end
$var wire 1 8 out_buffer_wen $end
$var wire 1 - rst_n $end
$var wire 1 9 unused_r_z $end
$var wire 1 : unused_r_c0_f $end
$var wire 1 ; unused_f_c15 $end
$var wire 1 < unused_f_c0_b $end
$var wire 1 = spi_wen $end
$var wire 18 > spi_wdata [17:0] $end
$var wire 1 ? spi_ren $end
$var wire 18 @ spi_rdata [17:0] $end
$var wire 1 # spi_mosi $end
$var wire 1 $ spi_miso $end
$var wire 1 % spi_csn $end
$var wire 1 ' spi_clk $end
$var wire 3 A spi_addr [2:0] $end
$var wire 16 B out_buffer_data_out [15:0] $end
$var wire 16 C out_buffer_data_in [15:0] $end
$var wire 32 D nxt_pe_reg2 [31:0] $end
$var wire 79 E nxt_pe_reg1 [78:0] $end
$var wire 16 F nxt_output_reg [15:0] $end
$var wire 2 G nxt_cmd [1:0] $end
$var wire 16 H mult_rev_ab [15:0] $end
$var wire 16 I mult_f_p [15:0] $end
$var wire 63 J mult_f_extra [62:0] $end
$var wire 8 K mult_f_b [7:0] $end
$var wire 8 L mult_f_a [7:0] $end
$var wire 1 M mult_dir $end
$var wire 1 N fa_dir $end
$var wire 1 O buffer_ren $end
$var wire 16 P buffer_data_out [15:0] $end
$var wire 16 Q buffer_data_in [15:0] $end
$var wire 16 R add_rev_b [15:0] $end
$var wire 16 S add_rev_a [15:0] $end
$var wire 16 T add_f_a [15:0] $end
$var parameter 2 U IDLE $end
$var parameter 2 V NO_CMD $end
$var parameter 2 W START_CMD $end
$var parameter 2 X WORK $end
$var parameter 2 Y WRITE_CMD $end
$var reg 2 Z cmd [1:0] $end
$var reg 3 [ counter [2:0] $end
$var reg 2 \ current_state [1:0] $end
$var reg 1 ] err1 $end
$var reg 1 ^ err2 $end
$var reg 3 _ nxt_counter [2:0] $end
$var reg 1 ` nxt_err1 $end
$var reg 1 a nxt_err2 $end
$var reg 2 b nxt_state [1:0] $end
$var reg 16 c output_reg [15:0] $end
$var reg 16 d pe_reg0 [15:0] $end
$var reg 79 e pe_reg1 [78:0] $end
$var reg 32 f pe_reg2 [31:0] $end
$var reg 1 g pe_vld0 $end
$var reg 1 h pe_vld1 $end
$var reg 1 i pe_vld2 $end
$var reg 1 j pe_vld_stem $end
$var reg 1 k spi_rvalid $end
$var reg 3 l wr_counter [2:0] $end
$scope module u_fa16_rev $end
$var wire 1 N dir $end
$var wire 16 m f_a [15:0] $end
$var wire 16 n f_b [15:0] $end
$var wire 1 o f_c0_f $end
$var wire 1 p f_z $end
$var wire 16 q r_a_b [15:0] $end
$var wire 1 r r_c0_b $end
$var wire 1 s r_c15 $end
$var wire 16 t r_s [15:0] $end
$var wire 16 u forward_sum [15:0] $end
$var wire 1 v forward_carry $end
$var wire 16 w backward_sum [15:0] $end
$var reg 17 x backward_accum [16:0] $end
$var reg 16 y f_a_b [15:0] $end
$var reg 1 < f_c0_b $end
$var reg 1 ; f_c15 $end
$var reg 16 z f_s [15:0] $end
$var reg 17 { forward_accum [16:0] $end
$var reg 16 | r_a [15:0] $end
$var reg 16 } r_b [15:0] $end
$var reg 1 : r_c0_f $end
$var reg 1 9 r_z $end
$upscope $end
$scope module u_mult8_rev $end
$var wire 8 ~ backward_passthru [7:0] $end
$var wire 1 M dir $end
$var wire 8 !" f_a [7:0] $end
$var wire 8 "" f_b [7:0] $end
$var wire 8 #" f_b2_r_b [7:0] $end
$var wire 8 $" f_b3_r_b [7:0] $end
$var wire 8 %" f_b4_r_b [7:0] $end
$var wire 8 &" f_b5_r_b [7:0] $end
$var wire 8 '" f_b6_r_b [7:0] $end
$var wire 8 (" f_b7_r_b [7:0] $end
$var wire 7 )" f_x_c0_b [6:0] $end
$var wire 8 *" forward_passthru [7:0] $end
$var wire 8 +" r_b0_r_b [7:0] $end
$var wire 8 ," r_b2_r_b [7:0] $end
$var wire 8 -" r_b3_r_b [7:0] $end
$var wire 8 ." r_b4_r_b [7:0] $end
$var wire 8 /" r_b5_r_b [7:0] $end
$var wire 8 0" r_b6_r_b [7:0] $end
$var wire 8 1" r_b7_r_b [7:0] $end
$var wire 16 2" r_p [15:0] $end
$var wire 7 3" r_x_c0_b [6:0] $end
$var wire 16 4" forward_prod [15:0] $end
$var wire 8 5" backward_recovered_b [7:0] $end
$var reg 8 6" f_b0_r_b [7:0] $end
$var reg 16 7" f_p [15:0] $end
$var reg 8 8" r_a [7:0] $end
$var reg 8 9" r_b [7:0] $end
$upscope $end
$scope module u_pe_buffer $end
$var wire 1 ( clk $end
$var wire 16 :" data_in [15:0] $end
$var wire 3 ;" read_addr [2:0] $end
$var wire 1 O read_en $end
$var wire 1 - rst_n $end
$var wire 3 <" write_addr [2:0] $end
$var wire 1 3 write_en $end
$var parameter 32 =" ADDR_WIDTH $end
$var parameter 32 >" DATA_NUM $end
$var parameter 32 ?" DATA_WIDTH $end
$var parameter 32 @" DEPTH $end
$var reg 16 A" data_out [15:0] $end
$scope begin $ivl_for_loop0 $end
$var integer 32 B" i [31:0] $end
$upscope $end
$upscope $end
$scope module u_pe_out_buffer $end
$var wire 1 ( clk $end
$var wire 16 C" data_in [15:0] $end
$var wire 3 D" read_addr [2:0] $end
$var wire 1 6 read_en $end
$var wire 1 - rst_n $end
$var wire 3 E" write_addr [2:0] $end
$var wire 1 8 write_en $end
$var parameter 32 F" ADDR_WIDTH $end
$var parameter 32 G" DATA_NUM $end
$var parameter 32 H" DATA_WIDTH $end
$var parameter 32 I" DEPTH $end
$var reg 16 J" data_out [15:0] $end
$scope begin $ivl_for_loop0 $end
$var integer 32 K" i [31:0] $end
$upscope $end
$upscope $end
$scope module u_spi_slave $end
$var wire 1 ( clk $end
$var wire 18 L" rdata [17:0] $end
$var wire 1 ? ren $end
$var wire 1 M" rst $end
$var wire 1 k rvalid $end
$var wire 1 # spi_mosi $end
$var wire 1 $ spi_miso $end
$var wire 1 % spi_csn $end
$var wire 1 ' spi_clk $end
$var parameter 33 N" AW $end
$var parameter 32 O" CNT $end
$var parameter 33 P" DW $end
$var parameter 35 Q" SW $end
$var parameter 32 R" TX_CNT $end
$var reg 3 S" addr [2:0] $end
$var reg 1 T" avalid $end
$var reg 2 U" cmd [1:0] $end
$var reg 1 V" rx_addr_valid $end
$var reg 1 W" rx_addr_valid_d0 $end
$var reg 1 X" rx_addr_valid_d1 $end
$var reg 1 Y" rx_addr_valid_d2 $end
$var reg 6 Z" rx_bit_cnt [5:0] $end
$var reg 24 [" rx_byte_buf [23:0] $end
$var reg 1 \" rx_data_valid $end
$var reg 1 ]" rx_data_valid_d0 $end
$var reg 1 ^" rx_data_valid_d1 $end
$var reg 1 _" rx_data_valid_d2 $end
$var reg 1 `" spi_miso_enable $end
$var reg 6 a" tx_bit_cnt [5:0] $end
$var reg 18 b" tx_byte_buf [17:0] $end
$var reg 18 c" wdata [17:0] $end
$var reg 1 = wen $end
$upscope $end
$upscope $end
$scope module inst_host_spi $end
$var wire 1 * clk $end
$var wire 1 , rst $end
$var wire 1 $ spi_miso $end
$var wire 18 d" spi_rx_data [17:0] $end
$var wire 1 . spi_start $end
$var wire 24 e" spi_tx_data [23:0] $end
$var wire 1 ' spi_sck $end
$var parameter 36 f" DW $end
$var parameter 33 g" RX $end
$var parameter 36 h" SPI_BEAT $end
$var parameter 2 i" SPI_IDLE $end
$var parameter 2 j" SPI_WORK $end
$var reg 8 k" spi_cnt [7:0] $end
$var reg 1 & spi_complete $end
$var reg 1 % spi_csn $end
$var reg 1 # spi_mosi $end
$var reg 18 l" spi_rx_reg [17:0] $end
$var reg 1 ! spi_rx_valid $end
$var reg 2 m" spi_state [1:0] $end
$var reg 24 n" spi_tx_reg [23:0] $end
$upscope $end
$scope begin $ivl_for_loop1 $end
$var integer 32 o" i [31:0] $end
$upscope $end
$scope task FPGA_SPI_RD $end
$var reg 3 p" addr [2:0] $end
$var reg 18 q" rdata [17:0] $end
$upscope $end
$scope task FPGA_SPI_WR $end
$var reg 3 r" addr [2:0] $end
$var reg 18 s" wdata [17:0] $end
$upscope $end
$upscope $end
$enddefinitions $end
$comment Show the parameter values. $end
$dumpall
b10 j"
b1 i"
b110000 h"
b10010 g"
b11000 f"
b101 R"
b11000 Q"
b10010 P"
b110 O"
b101 N"
b1000 I"
b10000 H"
b1000 G"
b11 F"
b1000 @"
b10000 ?"
b1000 >"
b11 ="
b1 Y
b10 X
b10 W
b0 V
b1 U
$end
#0
$dumpvars
bx s"
bx r"
bx q"
bx p"
b0 o"
b0 n"
b0 m"
b0 l"
b0 k"
b0 e"
b0 d"
b0 c"
b0 b"
b10111 a"
0`"
0_"
0^"
0]"
0\"
b0 ["
b0 Z"
0Y"
0X"
0W"
0V"
b0 U"
0T"
b0 S"
1M"
b0 L"
b1000 K"
b0 J"
b0 E"
b0 D"
b0 C"
b1000 B"
b0 A"
b0 <"
b0 ;"
b0 :"
b0 9"
b0 8"
b0 7"
b0 6"
b0 5"
b0 4"
b0 3"
b0 2"
b0 1"
b0 0"
b0 /"
b0 ."
b0 -"
b0 ,"
b0 +"
b0 *"
b0 )"
b0 ("
b0 '"
b0 &"
b0 %"
b0 $"
b0 #"
b0 ""
b0 !"
b0 ~
b0 }
b0 |
b0 {
b0 z
b0 y
b0 x
b0 w
0v
b0 u
b0 t
0s
0r
b0 q
0p
0o
b0 n
b0 m
b0 l
0k
0j
0i
0h
0g
b0 f
b0 e
b0 d
b0 c
b1 b
0a
0`
b0 _
0^
0]
b1 \
b0 [
b0 Z
b0 T
b0 S
b0 R
b0 Q
b0 P
0O
0N
0M
b0 L
b0 K
b0 J
b0 I
b0 H
b0 G
b0 F
b0 E
b0 D
b0 C
b0 B
b0 A
b0 @
0?
b0 >
0=
0<
0;
0:
09
08
b0 7
06
b0 5
b0 4
03
b0 2
b0 1
b0 0
b0 /
0.
0-
1,
bx +
0*
0)
1(
0'
0&
1%
0$
0#
b0 "
0!
$end
#20000
0(
#25000
1)
#45000
0)
#50000
b1000 K"
b1000 B"
1(
#70000
0(
#75000
1)
#95000
0)
#100000
b1000 K"
b1000 B"
1(
1*
#120000
0(
#125000
1)
#145000
0)
#150000
b1000 K"
b1000 B"
1(
#170000
0(
#175000
1)
#195000
0)
#200000
0M"
1(
0*
0,
1-
#220000
0(
#225000
1)
#245000
0)
#250000
1(
#270000
0(
#275000
1)
#295000
0)
#300000
b1 m"
1(
1*
#320000
0(
#325000
1)
#345000
0)
#350000
1(
#370000
0(
#375000
1)
#395000
0)
#400000
1(
0*
#420000
0(
#425000
1)
#445000
0)
#450000
1(
#470000
0(
#475000
1)
#495000
0)
#500000
1(
1*
#520000
0(
#525000
1)
#545000
0)
#550000
1(
#570000
0(
#575000
1)
#595000
0)
#600000
1(
0*
#620000
0(
#625000
1)
#645000
0)
#650000
1(
#670000
0(
#675000
1)
#695000
0)
#700000
1(
1*
b10000000100000001 s"
b0 r"
#720000
0(
#725000
1)
#745000
0)
#750000
1(
#770000
0(
#775000
1)
#795000
0)
#800000
b100000010000000100000001 /
b100000010000000100000001 e"
1.
1(
0*
#820000
0(
#825000
1)
#845000
0)
#850000
1(
#870000
0(
#875000
1)
#895000
0)
#900000
1#
0%
b100000001000000010 n"
b10 m"
1(
1*
#920000
0(
#925000
1)
#945000
0)
#950000
1(
#970000
0(
#975000
1)
#995000
0)
#1000000
0.
1(
0*
#1020000
0(
#1025000
1)
#1045000
0)
#1050000
1(
#1070000
0(
#1075000
1)
#1095000
0)
#1100000
b1 ["
b1 Z"
1'
b1 k"
1(
1*
#1120000
0(
#1125000
1)
#1145000
0)
#1150000
1(
#1170000
0(
#1175000
1)
#1195000
0)
#1200000
1(
0*
#1220000
0(
#1225000
1)
#1245000
0)
#1250000
1(
#1270000
0(
#1275000
1)
#1295000
0)
#1300000
b10110 a"
0'
b1000000010000000100 n"
0#
b10 k"
1(
1*
#1320000
0(
#1325000
1)
#1345000
0)
#1350000
1(
#1370000
0(
#1375000
1)
#1395000
0)
#1400000
1(
0*
#1420000
0(
#1425000
1)
#1445000
0)
#1450000
1(
#1470000
0(
#1475000
1)
#1495000
0)
#1500000
b10 Z"
b10 ["
1'
b11 k"
1(
1*
#1520000
0(
#1525000
1)
#1545000
0)
#1550000
1(
#1570000
0(
#1575000
1)
#1595000
0)
#1600000
1(
0*
#1620000
0(
#1625000
1)
#1645000
0)
#1650000
1(
#1670000
0(
#1675000
1)
#1695000
0)
#1700000
b10101 a"
0'
b10000000100000001000 n"
b100 k"
1(
1*
#1720000
0(
#1725000
1)
#1745000
0)
#1750000
1(
#1770000
0(
#1775000
1)
#1795000
0)
#1800000
1(
0*
#1820000
0(
#1825000
1)
#1845000
0)
#1850000
1(
#1870000
0(
#1875000
1)
#1895000
0)
#1900000
b100 ["
b11 Z"
1'
b101 k"
1(
1*
#1920000
0(
#1925000
1)
#1945000
0)
#1950000
1(
#1970000
0(
#1975000
1)
#1995000
0)
#2000000
1(
0*
#2020000
0(
#2025000
1)
#2045000
0)
#2050000
1(
#2070000
0(
#2075000
1)
#2095000
0)
#2100000
b10100 a"
0'
b100000001000000010000 n"
b110 k"
1(
1*
#2120000
0(
#2125000
1)
#2145000
0)
#2150000
1(
#2170000
0(
#2175000
1)
#2195000
0)
#2200000
1(
0*
#2220000
0(
#2225000
1)
#2245000
0)
#2250000
1(
#2270000
0(
#2275000
1)
#2295000
0)
#2300000
b100 Z"
b1000 ["
1'
b111 k"
1(
1*
#2320000
0(
#2325000
1)
#2345000
0)
#2350000
1(
#2370000
0(
#2375000
1)
#2395000
0)
#2400000
1(
0*
#2420000
0(
#2425000
1)
#2445000
0)
#2450000
1(
#2470000
0(
#2475000
1)
#2495000
0)
#2500000
b10011 a"
0'
b1000000010000000100000 n"
b1000 k"
1(
1*
#2520000
0(
#2525000
1)
#2545000
0)
#2550000
1(
#2570000
0(
#2575000
1)
#2595000
0)
#2600000
1(
0*
#2620000
0(
#2625000
1)
#2645000
0)
#2650000
1(
#2670000
0(
#2675000
1)
#2695000
0)
#2700000
1V"
b10000 ["
b101 Z"
1'
b1001 k"
1(
1*
#2720000
0(
#2725000
1)
#2745000
0)
#2750000
1W"
1(
#2770000
0(
#2775000
1)
#2795000
0)
#2800000
1X"
1(
0*
#2820000
0(
#2825000
1)
#2845000
0)
#2850000
1Y"
b10 U"
1T"
1(
#2870000
0(
#2875000
1)
#2895000
0)
#2900000
b10010 a"
0'
0T"
b10000000100000001000000 n"
b1010 k"
1(
1*
#2920000
0(
#2925000
1)
#2945000
0)
#2950000
1(
#2970000
0(
#2975000
1)
#2995000
0)
#3000000
1(
0*
#3020000
0(
#3025000
1)
#3045000
0)
#3050000
1(
#3070000
0(
#3075000
1)
#3095000
0)
#3100000
b110 Z"
b100000 ["
0V"
1'
b1011 k"
1(
1*
#3120000
0(
#3125000
1)
#3145000
0)
#3150000
0W"
1(
#3170000
0(
#3175000
1)
#3195000
0)
#3200000
0X"
1(
0*
#3220000
0(
#3225000
1)
#3245000
0)
#3250000
0Y"
1(
#3270000
0(
#3275000
1)
#3295000
0)
#3300000
b10001 a"
1`"
0'
b100000001000000010000000 n"
b1100 k"
1(
1*
#3320000
0(
#3325000
1)
#3345000
0)
#3350000
1(
#3370000
0(
#3375000
1)
#3395000
0)
#3400000
1(
0*
#3420000
0(
#3425000
1)
#3445000
0)
#3450000
1(
#3470000
0(
#3475000
1)
#3495000
0)
#3500000
b1000000 ["
b111 Z"
1'
b1101 k"
1(
1*
#3520000
0(
#3525000
1)
#3545000
0)
#3550000
1(
#3570000
0(
#3575000
1)
#3595000
0)
#3600000
1(
0*
#3620000
0(
#3625000
1)
#3645000
0)
#3650000
1(
#3670000
0(
#3675000
1)
#3695000
0)
#3700000
b10000 a"
0'
b10000000100000000 n"
1#
b1110 k"
1(
1*
#3720000
0(
#3725000
1)
#3745000
0)
#3750000
1(
#3770000
0(
#3775000
1)
#3795000
0)
#3800000
1(
0*
#3820000
0(
#3825000
1)
#3845000
0)
#3850000
1(
#3870000
0(
#3875000
1)
#3895000
0)
#3900000
b1000 Z"
b10000001 ["
1'
b1111 k"
1(
1*
#3920000
0(
#3925000
1)
#3945000
0)
#3950000
1(
#3970000
0(
#3975000
1)
#3995000
0)
#4000000
1(
0*
#4020000
0(
#4025000
1)
#4045000
0)
#4050000
1(
#4070000
0(
#4075000
1)
#4095000
0)
#4100000
b1111 a"
0'
b100000001000000000 n"
0#
b10000 k"
1(
1*
#4120000
0(
#4125000
1)
#4145000
0)
#4150000
1(
#4170000
0(
#4175000
1)
#4195000
0)
#4200000
1(
0*
#4220000
0(
#4225000
1)
#4245000
0)
#4250000
1(
#4270000
0(
#4275000
1)
#4295000
0)
#4300000
b100000010 ["
b1001 Z"
1'
b10001 k"
1(
1*
#4320000
0(
#4325000
1)
#4345000
0)
#4350000
1(
#4370000
0(
#4375000
1)
#4395000
0)
#4400000
1(
0*
#4420000
0(
#4425000
1)
#4445000
0)
#4450000
1(
#4470000
0(
#4475000
1)
#4495000
0)
#4500000
b1110 a"
0'
b1000000010000000000 n"
b10010 k"
1(
1*
#4520000
0(
#4525000
1)
#4545000
0)
#4550000
1(
#4570000
0(
#4575000
1)
#4595000
0)
#4600000
1(
0*
#4620000
0(
#4625000
1)
#4645000
0)
#4650000
1(
#4670000
0(
#4675000
1)
#4695000
0)
#4700000
b1010 Z"
b1000000100 ["
1'
b10011 k"
1(
1*
#4720000
0(
#4725000
1)
#4745000
0)
#4750000
1(
#4770000
0(
#4775000
1)
#4795000
0)
#4800000
1(
0*
#4820000
0(
#4825000
1)
#4845000
0)
#4850000
1(
#4870000
0(
#4875000
1)
#4895000
0)
#4900000
b1101 a"
0'
b10000000100000000000 n"
b10100 k"
1(
1*
#4920000
0(
#4925000
1)
#4945000
0)
#4950000
1(
#4970000
0(
#4975000
1)
#4995000
0)
#5000000
1(
0*
#5020000
0(
#5025000
1)
#5045000
0)
#5050000
1(
#5070000
0(
#5075000
1)
#5095000
0)
#5100000
b10000001000 ["
b1011 Z"
1'
b10101 k"
1(
1*
#5120000
0(
#5125000
1)
#5145000
0)
#5150000
1(
#5170000
0(
#5175000
1)
#5195000
0)
#5200000
1(
0*
#5220000
0(
#5225000
1)
#5245000
0)
#5250000
1(
#5270000
0(
#5275000
1)
#5295000
0)
#5300000
b1100 a"
0'
b100000001000000000000 n"
b10110 k"
1(
1*
#5320000
0(
#5325000
1)
#5345000
0)
#5350000
1(
#5370000
0(
#5375000
1)
#5395000
0)
#5400000
1(
0*
#5420000
0(
#5425000
1)
#5445000
0)
#5450000
1(
#5470000
0(
#5475000
1)
#5495000
0)
#5500000
b1100 Z"
b100000010000 ["
1'
b10111 k"
1(
1*
#5520000
0(
#5525000
1)
#5545000
0)
#5550000
1(
#5570000
0(
#5575000
1)
#5595000
0)
#5600000
1(
0*
#5620000
0(
#5625000
1)
#5645000
0)
#5650000
1(
#5670000
0(
#5675000
1)
#5695000
0)
#5700000
b1011 a"
0'
b1000000010000000000000 n"
b11000 k"
1(
1*
#5720000
0(
#5725000
1)
#5745000
0)
#5750000
1(
#5770000
0(
#5775000
1)
#5795000
0)
#5800000
1(
0*
#5820000
0(
#5825000
1)
#5845000
0)
#5850000
1(
#5870000
0(
#5875000
1)
#5895000
0)
#5900000
b1000000100000 ["
b1101 Z"
1'
b11001 k"
1(
1*
#5920000
0(
#5925000
1)
#5945000
0)
#5950000
1(
#5970000
0(
#5975000
1)
#5995000
0)
#6000000
1(
0*
#6020000
0(
#6025000
1)
#6045000
0)
#6050000
1(
#6070000
0(
#6075000
1)
#6095000
0)
#6100000
b1010 a"
0'
b10000000100000000000000 n"
b11010 k"
1(
1*
#6120000
0(
#6125000
1)
#6145000
0)
#6150000
1(
#6170000
0(
#6175000
1)
#6195000
0)
#6200000
1(
0*
#6220000
0(
#6225000
1)
#6245000
0)
#6250000
1(
#6270000
0(
#6275000
1)
#6295000
0)
#6300000
b1110 Z"
b10000001000000 ["
1'
b11011 k"
1(
1*
#6320000
0(
#6325000
1)
#6345000
0)
#6350000
1(
#6370000
0(
#6375000
1)
#6395000
0)
#6400000
1(
0*
#6420000
0(
#6425000
1)
#6445000
0)
#6450000
1(
#6470000
0(
#6475000
1)
#6495000
0)
#6500000
b1001 a"
0'
b100000001000000000000000 n"
b11100 k"
1(
1*
#6520000
0(
#6525000
1)
#6545000
0)
#6550000
1(
#6570000
0(
#6575000
1)
#6595000
0)
#6600000
1(
0*
#6620000
0(
#6625000
1)
#6645000
0)
#6650000
1(
#6670000
0(
#6675000
1)
#6695000
0)
#6700000
b100000010000000 ["
b1111 Z"
1'
b11101 k"
1(
1*
#6720000
0(
#6725000
1)
#6745000
0)
#6750000
1(
#6770000
0(
#6775000
1)
#6795000
0)
#6800000
1(
0*
#6820000
0(
#6825000
1)
#6845000
0)
#6850000
1(
#6870000
0(
#6875000
1)
#6895000
0)
#6900000
b1000 a"
0'
b10000000000000000 n"
1#
b11110 k"
1(
1*
#6920000
0(
#6925000
1)
#6945000
0)
#6950000
1(
#6970000
0(
#6975000
1)
#6995000
0)
#7000000
1(
0*
#7020000
0(
#7025000
1)
#7045000
0)
#7050000
1(
#7070000
0(
#7075000
1)
#7095000
0)
#7100000
b10000 Z"
b1000000100000001 ["
1'
b11111 k"
1(
1*
#7120000
0(
#7125000
1)
#7145000
0)
#7150000
1(
#7170000
0(
#7175000
1)
#7195000
0)
#7200000
1(
0*
#7220000
0(
#7225000
1)
#7245000
0)
#7250000
1(
#7270000
0(
#7275000
1)
#7295000
0)
#7300000
b111 a"
0'
b100000000000000000 n"
0#
b100000 k"
1(
1*
#7320000
0(
#7325000
1)
#7345000
0)
#7350000
1(
#7370000
0(
#7375000
1)
#7395000
0)
#7400000
1(
0*
#7420000
0(
#7425000
1)
#7445000
0)
#7450000
1(
#7470000
0(
#7475000
1)
#7495000
0)
#7500000
b10000001000000010 ["
b10001 Z"
1'
b100001 k"
1(
1*
#7520000
0(
#7525000
1)
#7545000
0)
#7550000
1(
#7570000
0(
#7575000
1)
#7595000
0)
#7600000
1(
0*
#7620000
0(
#7625000
1)
#7645000
0)
#7650000
1(
#7670000
0(
#7675000
1)
#7695000
0)
#7700000
b110 a"
0'
b1000000000000000000 n"
b100010 k"
1(
1*
#7720000
0(
#7725000
1)
#7745000
0)
#7750000
1(
#7770000
0(
#7775000
1)
#7795000
0)
#7800000
1(
0*
#7820000
0(
#7825000
1)
#7845000
0)
#7850000
1(
#7870000
0(
#7875000
1)
#7895000
0)
#7900000
b10010 Z"
b100000010000000100 ["
1'
b100011 k"
1(
1*
#7920000
0(
#7925000
1)
#7945000
0)
#7950000
1(
#7970000
0(
#7975000
1)
#7995000
0)
#8000000
1(
0*
#8020000
0(
#8025000
1)
#8045000
0)
#8050000
1(
#8070000
0(
#8075000
1)
#8095000
0)
#8100000
b101 a"
0'
b10000000000000000000 n"
b100100 k"
1(
1*
#8120000
0(
#8125000
1)
#8145000
0)
#8150000
1(
#8170000
0(
#8175000
1)
#8195000
0)
#8200000
1(
0*
#8220000
0(
#8225000
1)
#8245000
0)
#8250000
1(
#8270000
0(
#8275000
1)
#8295000
0)
#8300000
b1000000100000001000 ["
b10011 Z"
1'
b100101 k"
1(
1*
#8320000
0(
#8325000
1)
#8345000
0)
#8350000
1(
#8370000
0(
#8375000
1)
#8395000
0)
#8400000
1(
0*
#8420000
0(
#8425000
1)
#8445000
0)
#8450000
1(
#8470000
0(
#8475000
1)
#8495000
0)
#8500000
b100 a"
0'
b100000000000000000000 n"
b100110 k"
1(
1*
#8520000
0(
#8525000
1)
#8545000
0)
#8550000
1(
#8570000
0(
#8575000
1)
#8595000
0)
#8600000
1(
0*
#8620000
0(
#8625000
1)
#8645000
0)
#8650000
1(
#8670000
0(
#8675000
1)
#8695000
0)
#8700000
b10100 Z"
b10000001000000010000 ["
1'
b100111 k"
1(
1*
#8720000
0(
#8725000
1)
#8745000
0)
#8750000
1(
#8770000
0(
#8775000
1)
#8795000
0)
#8800000
1(
0*
#8820000
0(
#8825000
1)
#8845000
0)
#8850000
1(
#8870000
0(
#8875000
1)
#8895000
0)
#8900000
b11 a"
0'
b1000000000000000000000 n"
b101000 k"
1(
1*
#8920000
0(
#8925000
1)
#8945000
0)
#8950000
1(
#8970000
0(
#8975000
1)
#8995000
0)
#9000000
1(
0*
#9020000
0(
#9025000
1)
#9045000
0)
#9050000
1(
#9070000
0(
#9075000
1)
#9095000
0)
#9100000
b100000010000000100000 ["
b10101 Z"
1'
b101001 k"
1(
1*
#9120000
0(
#9125000
1)
#9145000
0)
#9150000
1(
#9170000
0(
#9175000
1)
#9195000
0)
#9200000
1(
0*
#9220000
0(
#9225000
1)
#9245000
0)
#9250000
1(
#9270000
0(
#9275000
1)
#9295000
0)
#9300000
b10 a"
0'
b10000000000000000000000 n"
b101010 k"
1(
1*
#9320000
0(
#9325000
1)
#9345000
0)
#9350000
1(
#9370000
0(
#9375000
1)
#9395000
0)
#9400000
1(
0*
#9420000
0(
#9425000
1)
#9445000
0)
#9450000
1(
#9470000
0(
#9475000
1)
#9495000
0)
#9500000
b10110 Z"
b1000000100000001000000 ["
1'
b101011 k"
1(
1*
#9520000
0(
#9525000
1)
#9545000
0)
#9550000
1(
#9570000
0(
#9575000
1)
#9595000
0)
#9600000
1(
0*
#9620000
0(
#9625000
1)
#9645000
0)
#9650000
1(
#9670000
0(
#9675000
1)
#9695000
0)
#9700000
b1 a"
0'
b100000000000000000000000 n"
b101100 k"
1(
1*
#9720000
0(
#9725000
1)
#9745000
0)
#9750000
1(
#9770000
0(
#9775000
1)
#9795000
0)
#9800000
1(
0*
#9820000
0(
#9825000
1)
#9845000
0)
#9850000
1(
#9870000
0(
#9875000
1)
#9895000
0)
#9900000
b10000001000000010000000 ["
b10111 Z"
1'
b101101 k"
1(
1*
#9920000
0(
#9925000
1)
#9945000
0)
#9950000
1(
#9970000
0(
#9975000
1)
#9995000
0)
#10000000
1(
0*
#10020000
0(
#10025000
1)
#10045000
0)
#10050000
1(
#10070000
0(
#10075000
1)
#10095000
0)
#10100000
b0 a"
0'
b0 n"
1#
b101110 k"
1(
1*
#10120000
0(
#10125000
1)
#10145000
0)
#10150000
1(
#10170000
0(
#10175000
1)
#10195000
0)
#10200000
1(
0*
#10220000
0(
#10225000
1)
#10245000
0)
#10250000
1(
#10270000
0(
#10275000
1)
#10295000
0)
#10300000
b0 Z"
b100000010000000100000001 ["
1\"
1'
b101111 k"
1(
1*
#10320000
0(
#10325000
1)
#10345000
0)
#10350000
1]"
1(
#10370000
0(
#10375000
1)
#10395000
0)
#10400000
1^"
1(
0*
#10420000
0(
#10425000
1)
#10445000
0)
#10450000
13
b1 G
b100000001 Q
b100000001 :"
1_"
b10000000100000001 >
b10000000100000001 c"
1=
1(
#10470000
0(
#10475000
1)
#10495000
0)
#10500000
b10111 a"
0`"
0\"
b0 ["
b0 G
03
0'
b1 Z
0=
0#
1%
b0 k"
1!
1&
b1 m"
1(
1*
#10520000
0(
#10525000
1)
#10545000
0)
#10550000
b0 Z
0]"
1(
#10570000
0(
#10575000
1)
#10595000
0)
#10600000
0^"
1(
0*
#10620000
0(
#10625000
1)
#10645000
0)
#10650000
0_"
1(
#10670000
0(
#10675000
1)
#10695000
0)
#10700000
0!
0&
1(
1*
#10720000
0(
#10725000
1)
#10745000
0)
#10750000
1(
#10770000
0(
#10775000
1)
#10795000
0)
#10800000
1(
0*
#10820000
0(
#10825000
1)
#10845000
0)
#10850000
1(
#10870000
0(
#10875000
1)
#10895000
0)
#10900000
1(
1*
#10920000
0(
#10925000
1)
#10945000
0)
#10950000
1(
#10970000
0(
#10975000
1)
#10995000
0)
#11000000
1(
0*
#11020000
0(
#11025000
1)
#11045000
0)
#11050000
1(
#11070000
0(
#11075000
1)
#11095000
0)
#11100000
1(
1*
b10000000100000010 s"
b1 r"
#11120000
0(
#11125000
1)
#11145000
0)
#11150000
1(
#11170000
0(
#11175000
1)
#11195000
0)
#11200000
b100010010000000100000010 /
b100010010000000100000010 e"
1.
1(
0*
#11220000
0(
#11225000
1)
#11245000
0)
#11250000
1(
#11270000
0(
#11275000
1)
#11295000
0)
#11300000
1#
0%
b100100000001000000100 n"
b10 m"
1(
1*
#11320000
0(
#11325000
1)
#11345000
0)
#11350000
1(
#11370000
0(
#11375000
1)
#11395000
0)
#11400000
0.
1(
0*
#11420000
0(
#11425000
1)
#11445000
0)
#11450000
1(
#11470000
0(
#11475000
1)
#11495000
0)
#11500000
b1 Z"
b1 ["
1'
b1 k"
1(
1*
#11520000
0(
#11525000
1)
#11545000
0)
#11550000
1(
#11570000
0(
#11575000
1)
#11595000
0)
#11600000
1(
0*
#11620000
0(
